^E:\OOOP\LAKA0\PROJECT2\PROJECT2\SORTMAPA.CPP|E:\OOOP\LAKA0\PROJECT2\PROJECT2\WORDCOUNTER.CPP|E:\OOOP\LAKA0\PROJECT2\PROJECT2\WRITER.CPP
E:\OOOP\LAKA0\PROJECT2\PROJECT2\DEBUG\VC142.PDB
E:\OOOP\LAKA0\PROJECT2\PROJECT2\DEBUG\VC142.IDB
E:\OOOP\LAKA0\PROJECT2\PROJECT2\DEBUG\WRITER.OBJ
E:\OOOP\LAKA0\PROJECT2\PROJECT2\DEBUG\WORDCOUNTER.OBJ
^E:\OOOP\LAKA0\PROJECT2\PROJECT2\SORTMAPA.CPP|E:\OOOP\LAKA0\PROJECT2\PROJECT2\WRITER.CPP
E:\OOOP\LAKA0\PROJECT2\PROJECT2\DEBUG\VC142.PDB
E:\OOOP\LAKA0\PROJECT2\PROJECT2\DEBUG\VC142.IDB
E:\OOOP\LAKA0\PROJECT2\PROJECT2\DEBUG\WRITER.OBJ
E:\OOOP\LAKA0\PROJECT2\PROJECT2\DEBUG\SORTMAPA.OBJ
^E:\OOOP\LAKA0\PROJECT2\PROJECT2\MAIN.CPP|E:\OOOP\LAKA0\PROJECT2\PROJECT2\WORDCOUNTER.CPP
E:\OOOP\LAKA0\PROJECT2\PROJECT2\DEBUG\VC142.PDB
E:\OOOP\LAKA0\PROJECT2\PROJECT2\DEBUG\VC142.IDB
E:\OOOP\LAKA0\PROJECT2\PROJECT2\DEBUG\WORDCOUNTER.OBJ
E:\OOOP\LAKA0\PROJECT2\PROJECT2\DEBUG\MAIN.OBJ
^E:\OOOP\LAKA0\PROJECT2\PROJECT2\READER.CPP|E:\OOOP\LAKA0\PROJECT2\PROJECT2\WORDCOUNTER.CPP
E:\OOOP\LAKA0\PROJECT2\PROJECT2\DEBUG\VC142.PDB
E:\OOOP\LAKA0\PROJECT2\PROJECT2\DEBUG\VC142.IDB
E:\OOOP\LAKA0\PROJECT2\PROJECT2\DEBUG\WORDCOUNTER.OBJ
E:\OOOP\LAKA0\PROJECT2\PROJECT2\DEBUG\READER.OBJ
^E:\OOOP\LAKA0\PROJECT2\PROJECT2\PARSER.CPP|E:\OOOP\LAKA0\PROJECT2\PROJECT2\WRITER.CPP
E:\OOOP\LAKA0\PROJECT2\PROJECT2\DEBUG\VC142.PDB
E:\OOOP\LAKA0\PROJECT2\PROJECT2\DEBUG\VC142.IDB
E:\OOOP\LAKA0\PROJECT2\PROJECT2\DEBUG\WRITER.OBJ
E:\OOOP\LAKA0\PROJECT2\PROJECT2\DEBUG\PARSER.OBJ
^E:\OOOP\LAKA0\PROJECT2\PROJECT2\MAIN.CPP|E:\OOOP\LAKA0\PROJECT2\PROJECT2\PARSER.CPP|E:\OOOP\LAKA0\PROJECT2\PROJECT2\READER.CPP|E:\OOOP\LAKA0\PROJECT2\PROJECT2\SORTMAPA.CPP|E:\OOOP\LAKA0\PROJECT2\PROJECT2\WORDCOUNTER.CPP|E:\OOOP\LAKA0\PROJECT2\PROJECT2\WRITER.CPP
E:\OOOP\LAKA0\PROJECT2\PROJECT2\DEBUG\VC142.PDB
E:\OOOP\LAKA0\PROJECT2\PROJECT2\DEBUG\VC142.IDB
E:\OOOP\LAKA0\PROJECT2\PROJECT2\DEBUG\WRITER.OBJ
E:\OOOP\LAKA0\PROJECT2\PROJECT2\DEBUG\WORDCOUNTER.OBJ
E:\OOOP\LAKA0\PROJECT2\PROJECT2\DEBUG\SORTMAPA.OBJ
E:\OOOP\LAKA0\PROJECT2\PROJECT2\DEBUG\READER.OBJ
E:\OOOP\LAKA0\PROJECT2\PROJECT2\DEBUG\PARSER.OBJ
E:\OOOP\LAKA0\PROJECT2\PROJECT2\DEBUG\MAIN.OBJ
^E:\OOOP\LAKA0\PROJECT2\PROJECT2\MAIN.CPP
E:\OOOP\LAKA0\PROJECT2\PROJECT2\DEBUG\VC142.PDB
^E:\OOOP\LAKA0\PROJECT2\PROJECT2\PARSER.CPP
E:\OOOP\LAKA0\PROJECT2\PROJECT2\DEBUG\VC142.PDB
^E:\OOOP\LAKA0\PROJECT2\PROJECT2\READER.CPP
E:\OOOP\LAKA0\PROJECT2\PROJECT2\DEBUG\VC142.PDB
^E:\OOOP\LAKA0\PROJECT2\PROJECT2\SORTMAPA.CPP
E:\OOOP\LAKA0\PROJECT2\PROJECT2\DEBUG\VC142.PDB
^E:\OOOP\LAKA0\PROJECT2\PROJECT2\WORDCOUNTER.CPP
E:\OOOP\LAKA0\PROJECT2\PROJECT2\DEBUG\VC142.PDB
^E:\OOOP\LAKA0\PROJECT2\PROJECT2\WRITER.CPP
E:\OOOP\LAKA0\PROJECT2\PROJECT2\DEBUG\VC142.PDB
